<svg version="1.1" viewBox="0 0 1413.142 574.21" class="four">
	<script type="text/javascript">
	// <![CDATA[
		this.SEATS = this.SEATS || {};
		this.SEATS.four = {
			iconSize: 22.32,
            seatPositions: [
                [227.457, 162.099],
                [448.914, 162.099],
                [676.396, 162.099],
                [ 18.161, 386.446],
                [132.924, 386.446],
                [296.535, 386.446],
                [448.914, 386.446],
                [599.546, 386.446],
                [754.453, 386.446],
                [872.543, 386.446],
                [ 49.767, 635.615],
                [246.691, 635.615],
                [448.914, 635.615],
                [649.137, 635.615],
                [846.497, 635.615],
                [  0.000, 876.144],
                [152.300, 876.144],
                [448.914, 876.144],
                [750.562, 876.144],
                [916.512, 876.144]
            ]
		};
	// ]]>
	</script>
<g class="walls">
	<polygon style="&st1;" points="1382.722,548.71 1382.722,177.71 914.722,177.71 914.722,23.71 22.722,23.71 22.722,548.71
		1382.722,548.71 	"/>
	<polygon style="&st1;" points="685.722,338.71 563.722,338.71 563.722,240.71 685.722,240.71 685.722,338.71 	"/>
	<polygon style="&st0;" points="507.722,338.71 507.722,338.71 563.722,338.71 563.722,240.71 507.722,240.71 507.722,240.71
		507.722,338.71 507.722,338.71 	"/>
	<polygon style="&st0;" points="480.722,240.71 480.722,338.71 339.722,338.71 339.722,240.71 480.722,240.71 	"/>
	<polygon style="&st0;" points="839.722,338.632 839.722,240.71 687.722,240.71 687.722,338.71 839.722,338.71 839.722,338.632 	"/>
	<polygon style="&st0;" points="869.722,240.71 869.722,338.71 869.722,338.71 869.722,338.71 869.722,338.71 911.722,338.71
		911.722,240.71 869.722,240.71 	"/>
	<g class="innerWalls">
		<line style="&st2;" x1="118.722" y1="42.21" x2="118.722" y2="166.21"/>
		<line style="&st2;" x1="188.722" y1="42.21" x2="188.722" y2="166.21"/>
		<line style="&st2;" x1="275.722" y1="42.21" x2="275.722" y2="166.21"/>
		<line style="&st2;" x1="345.722" y1="42.21" x2="345.722" y2="166.21"/>
		<line style="&st2;" x1="590.722" y1="42.21" x2="590.722" y2="166.21"/>
		<line style="&st2;" x1="659.722" y1="42.21" x2="659.722" y2="166.21"/>
		<line style="&st2;" x1="747.722" y1="42.21" x2="747.722" y2="166.21"/>
		<line style="&st2;" x1="816.722" y1="42.21" x2="816.722" y2="166.21"/>
		<line style="&st2;" x1="816.722" y1="407.21" x2="816.722" y2="531.21"/>
		<line style="&st2;" x1="345.722" y1="407.21" x2="345.722" y2="531.21"/>
		<line style="&st2;" x1="274.722" y1="407.21" x2="274.722" y2="531.21"/>
		<line style="&st2;" x1="188.722" y1="407.21" x2="188.722" y2="531.21"/>
		<line style="&st2;" x1="118.722" y1="407.21" x2="118.722" y2="531.21"/>
		<line style="&st2;" x1="904.722" y1="407.21" x2="904.722" y2="531.21"/>
		<line style="&st2;" x1="974.722" y1="407.21" x2="974.722" y2="531.21"/>
		<line style="&st2;" x1="732.722" y1="542.21" x2="732.722" y2="512.21"/>
		<line style="&st2;" x1="662.722" y1="483.21" x2="662.722" y2="542.21"/>
		<line style="&st2;" x1="592.722" y1="483.21" x2="592.722" y2="542.21"/>
		<line style="&st2;" x1="494.222" y1="520.71" x2="520.222" y2="520.71"/>
		<line style="&st2;" x1="615.222" y1="407.71" x2="640.222" y2="407.71"/>

		<g id="room-silent" class="room">
        	<polyline style="&st2;" points="22.722,362.21 22.722,204.71 65.722,204.71 65.722,239.71 65.722,239.71 176.722,239.71
        		176.722,339.71 65.722,339.71 65.722,339.71 65.722,361.71 23.222,361.71 	"/>
        </g>
        <g id="toilet-male-1" class="room">
        	<polygon style="&st2;" points="339.722,290.71 233.722,290.71 233.722,228.71 339.722,228.71 339.722,290.71 	"/>
        </g>
        <g id="toilet-male-2" class="room">
        	<polygon style="&st2;" points="339.722,352.71 233.722,352.71 233.722,290.71 339.722,290.71 339.722,352.71 	"/>
        </g>
        <g id="stig" class="room">
        	<polygon style="&st2;" points="545.722,548.71 469.722,548.71 469.722,459.71 545.722,459.71 545.722,548.71 	"/>
        </g>
        <g id="admin" class="room">
        	<polyline style="&st2;" points="545.222,459.71 507.722,459.71 507.722,401.71 601.722,401.71 601.722,438.71 601.722,438.71
        		702.722,438.71 702.722,415.71 782.722,415.71 782.722,548.71 545.722,548.71 545.722,460.21 	"/>
        </g>
        <g id="football" class="room">
        	<polygon style="&st2;" points="914.722,177.71 857.722,177.71 857.722,72.71 914.722,72.71 914.722,177.71 	"/>
        </g>
        <g id="toilet-female-1" class="room">
        	<polygon style="&st2;" points="1017.722,294.71 911.722,294.71 911.722,225.71 1017.722,225.71 1017.722,294.71 	"/>
        </g>
        <g id="toilet-female-2" class="room">
        	<polygon style="&st2;" points="1017.722,353.71 911.722,353.71 911.722,294.71 1017.722,294.71 1017.722,353.71 	"/>
        </g>
        <g id="kitchen" class="room">
        	<polyline style="&st2;" points="1382.222,380.71 1279.472,380.71 1279.722,380.71 1279.722,289.21 1279.722,290.21
        		1279.722,226.71 1060.722,226.71 1060.722,352.71 1177.722,352.71 1177.722,548.71 1382.722,548.71 1382.722,381.21 	"/>
        </g>
        <g id="game-room" class="room">
        	<polygon style="&st2;" points="1382.722,280.71 1279.722,280.71 1279.722,177.71 1382.722,177.71 1382.722,280.71 	"/>
        </g>
        <g id="chillout-room" class="room">
        	<polygon style="&st2;" points="1382.722,380.71 1279.722,380.71 1279.722,280.71 1382.722,280.71 1382.722,380.71 	"/>
        </g>
        <g id="valhalla" class="room" endpoint:id="53e31fd3e4b008d825c8af4d">
        	<polygon class="roomArea" style="&st2;" points="445.722,100.71 388.722,100.71 388.722,177.71 445.722,177.71 445.722,100.71 	"/>
        </g>
        <g id="ragnarok" class="room" endpoint:id="53e31fd3e4b008d825c8af4d">
        	<polygon class="roomArea" style="&st2;" points="445.722,459.71 387.722,459.71 387.722,401.71 445.722,401.71 445.722,459.71 	"/>
        </g>
        <g id="rownonoc" class="room" endpoint:id="53e31fd3e4b008d825c8af4d">
        	<polygon class="roomArea" style="&st2;" points="469.722,548.71 387.722,548.71 387.722,459.71 469.722,459.71 469.722,548.71 	"/>
        </g>
        <g id="asgard" class="room" endpoint:id="53e31fd3e4b008d825c8af4d">
        	<polygon class="roomArea" style="&st2;" points="546.722,23.71 388.722,23.71 388.722,100.71 546.722,100.71 546.722,23.71 	"/>
        </g>
        <g id="midgard" class="room" endpoint:id="53e31fd3e4b008d825c8af4d">
        	<polygon class="roomArea" style="&st2;" points="546.722,177.71 489.722,177.71 489.722,100.71 546.722,100.71 546.722,177.71 	"/>
        </g>
        <g id="kopiec-wandy" class="room" endpoint:id="53e31fd3e4b008d825c8af4d">
        	<polygon class="roomArea" style="&st2;" points="1096.722,468.71 1177.722,468.71 1177.722,548.71 1096.722,548.71 1096.722,468.71 	"/>
        </g>
        <g id="kopiec-kraka" class="room" endpoint:id="53e31fd3e4b008d825c8af4d">
        	<polygon class="roomArea" style="&st2;" points="1018.722,548.71 1096.722,548.71 1096.722,468.71 1018.722,468.71 1018.722,548.71 	"/>
        </g>
        <g id="dab-bartek" class="room" endpoint:id="53e31fd3e4b008d825c8af4d">
        	<polygon class="roomArea" style="&st2;" points="1073.722,400.71 1018.722,400.71 1018.722,468.71 1073.722,468.71 1073.722,400.71 	"/>
        </g>
        <g id="yggdrasil" class="room" endpoint:id="53e31fd3e4b008d825c8af4d">
        	<polygon class="roomArea" style="&st2;" points="1177.722,468.71 1118.722,468.71 1118.722,400.71 1177.722,400.71 1177.722,468.71 	"/>
        </g>
	</g>
</g>
<g class="roomNames">
<g id="valhalla" class="room" endpoint:id="53e31fd3e4b008d825c8af4d">
	<polygon class="roomArea" style="&st2;" points="445.722,100.71 388.722,100.71 388.722,177.71 445.722,177.71 445.722,100.71 	"/>
</g>
<g id="ragnarok" class="room" endpoint:id="53e31fd3e4b008d825c8af4d">
	<polygon class="roomArea" style="&st2;" points="445.722,459.71 387.722,459.71 387.722,401.71 445.722,401.71 445.722,459.71 	"/>
</g>
<g id="rownonoc" class="room" endpoint:id="53e31fd3e4b008d825c8af4d">
	<polygon class="roomArea" style="&st2;" points="469.722,548.71 387.722,548.71 387.722,459.71 469.722,459.71 469.722,548.71 	"/>
</g>
<g id="asgard" class="room" endpoint:id="53e31fd3e4b008d825c8af4d">
	<polygon class="roomArea" style="&st2;" points="546.722,23.71 388.722,23.71 388.722,100.71 546.722,100.71 546.722,23.71 	"/>
</g>
<g id="midgard" class="room" endpoint:id="53e31fd3e4b008d825c8af4d">
	<polygon class="roomArea" style="&st2;" points="546.722,177.71 489.722,177.71 489.722,100.71 546.722,100.71 546.722,177.71 	"/>
</g>
<g id="kopiec-wandy" class="room" endpoint:id="53e31fd3e4b008d825c8af4d">
	<polygon class="roomArea" style="&st2;" points="1096.722,468.71 1177.722,468.71 1177.722,548.71 1096.722,548.71 1096.722,468.71 	"/>
</g>
<g id="kopiec-kraka" class="room" endpoint:id="53e31fd3e4b008d825c8af4d">
	<polygon class="roomArea" style="&st2;" points="1018.722,548.71 1096.722,548.71 1096.722,468.71 1018.722,468.71 1018.722,548.71 	"/>
</g>
<g id="dab-bartek" class="room" endpoint:id="53e31fd3e4b008d825c8af4d">
	<polygon class="roomArea" style="&st2;" points="1073.722,400.71 1018.722,400.71 1018.722,468.71 1073.722,468.71 1073.722,400.71 	"/>
</g>
<g id="yggdrasil" class="room" endpoint:id="53e31fd3e4b008d825c8af4d">
	<polygon class="roomArea" style="&st2;" points="1177.722,468.71 1118.722,468.71 1118.722,400.71 1177.722,400.71 1177.722,468.71 	"/>
</g>

<g class="seats"></g>
<g class="photos"></g>

</svg>
